<?xml version="1.0" encoding="UTF-8"?>
<!DOCTYPE svg PUBLIC "-//W3C//DTD SVG 1.1//EN" "http://www.w3.org/Graphics/SVG/1.1/DTD/svg11.dtd">
<!-- Creator: CorelDRAW X8 -->
<svg xmlns="http://www.w3.org/2000/svg" xml:space="preserve" version="1.1" style="shape-rendering:geometricPrecision; text-rendering:geometricPrecision; image-rendering:optimizeQuality; fill-rule:evenodd; clip-rule:evenodd"
viewBox="0 0 12300 12300"
 xmlns:xlink="http://www.w3.org/1999/xlink"
 id="zvezda">
 <defs>
  <style type="text/css">
<!--    <![CDATA[
    #oirhuihui .fil0 {fill:#fa5522}
   ]]> -->
  </style>
 </defs>
 <g id="Слой_x0020_1">
  <metadata id="CorelCorpID_0Corel-Layer"/>
  <path class="fil0" d="M6150 150c3314,0 6000,2686 6000,6000 0,3314 -2686,6000 -6000,6000 -3314,0 -6000,-2686 -6000,-6000 0,-3314 2686,-6000 6000,-6000zm0 1997l1053 3034 3426 -7 -2776 1869 1065 3030 -2768 -1879 -2768 1879 1065 -3030 -2776 -1869 3426 7 1053 -3034z"/>
 </g>
</svg>
